{
  "type": "minecraft:crafting_shaped",
  "category": "misc",
  "pattern": [
    "aba",
    "bcb",
    "aba"
  ],
  "key": {
    "a": {
      "item": "dreamlandtechnology:originium_ingot"
    },
    "b": {
      "item": "minecraft:iron_ingot"
    },
    "c": {
      "item": "minecraft:glowstone"
    }
  },
  "result": {
    "item": "dreamlandtechnology:machine_frame",
    "count": 1
  }
}