{
  "type": "minecraft:smelting",
  "category": "misc",
  "experience": 0.7,
  "cookingtime": 200,
  "ingredient": {
    "item": "dreamlandtechnology:originium_ore"
  },
  "result": "dreamlandtechnology:originium_ingot"
}